Exploratory Data Analysis with Chocolate Dataset
…
Soma has the highest number of chocolate bars in this dataset with 46.

# Distribution of Chocolate Bars
company_count_chocolate_bars<-chocolate_project %>%
  group_by(Company_name) %>% 
  count(Company_name, sort = TRUE)

company_count_chocolate_bars

## # A tibble: 416 x 2
## # Groups:   Company_name [416]
##    Company_name                   n
##    <chr>                      <int>
##  1 Soma                          46
##  2 Bonnat                        27
##  3 Fresco                        26
##  4 Pralus                        25
##  5 A. Morin                      23
##  6 Arete                         22
##  7 Domori                        22
##  8 Guittard                      22
##  9 Valrhona                      21
## 10 Hotel Chocolat (Coppeneur)    19
## # ... with 406 more rows
…
